%YAML 1.1
%TAG !u! tag:unity3d.com,2011:
--- !u!1045 &1
EditorBuildSettings:
  m_ObjectHideFlags: 0
  serializedVersion: 2
  m_Scenes:
  - enabled: 1
    path: Assets/Scenes/MenuScreen.unity
    guid: e60e886554b45d54eaca4a44defb19de
  - enabled: 1
    path: Assets/Scenes/GameScreen.unity
    guid: 2cda990e2423bbf4892e6590ba056729
  m_configObjects: {}
